Analysis – xxx’ Project Lab
…
Analysis

About this site

data_new <- read_excel("izbb-kaza-ariza-verileri.xlsx")
data_2023 <- data_new %>%
  mutate(TARIH = as.Date(TARIH, format = "%Y-%m-%d")) %>%  # Changing date format to yyyy-mm-dd 
  filter(year(TARIH) == 2023)
data_2023

# A tibble: 6,366 x 7
   TARIH      CADDE                    ISTIKAMET KONUM TUR   KAZA_ZAMANI        
   <date>     <chr>                    <chr>     <chr> <chr> <dttm>             
 1 2023-01-01 Fevzipaşa Bulvarı        Basmane   Çank~ Yara~ 1899-12-31 04:47:00
 2 2023-01-01 Yeşildere Caddesi        Karabağl~ Atat~ Yara~ 1899-12-31 10:56:00
 3 2023-01-01 Haydar Aliyev Bulvarı    Merkez    Mari~ Madd~ 1899-12-31 15:12:00
 4 2023-01-01 Altınyol Caddesi         Merkez    DGM ~ Zinc~ 1899-12-31 15:39:00
 5 2023-01-01 Mustafa Kemal Sahil Bul~ Marina    Mari~ Madd~ 1899-12-31 18:11:00
 6 2023-01-01 Caher Dudayev Bulvarı    Çiğli     Yapı~ Madd~ 1899-12-31 18:13:00
 7 2023-01-02 Anadolu Caddesi          Merkez    Tura~ Madd~ 1899-12-31 08:12:00
 8 2023-01-02 Mustafa Kemal Sahil Bul~ Alsancak  Fevz~ Yang~ 1899-12-31 08:32:00
 9 2023-01-02 Akçay Caddesi            Merkez    Serb~ Arız~ 1899-12-31 08:40:00
10 2023-01-02 Akçay Caddesi            Havalima~ Gazi~ Yara~ 1899-12-31 14:06:00
# i 6,356 more rows
# i 1 more variable: MUDAHALE_ZAMANI <dttm>

By using the “data_new” dataset, we created the “data_2023”.In this data set, we can see the accidents that occurred in 2023 filtered.

data_2023 <- data_2023 %>%
  mutate(ISTIKAMET_SAYISI = as.numeric(factor(ISTIKAMET)))
grouped_data_2 <- data_2023 %>%
  group_by(ISTIKAMET) %>%  # İstikamete göre gruplama
  summarise(Total_Accidents = n())
grouped_data_2

# A tibble: 98 x 2
   ISTIKAMET    Total_Accidents
   <chr>                  <int>
 1 1. Sanayi                  1
 2 Adliye                     5
 3 Akıncılar                  1
 4 Alsancak                  72
 5 Altındağ                   1
 6 Altınyol                   1
 7 Anıt                       1
 8 Bahçelievler               3
 9 Balçova                   20
10 Basmane                   45
# i 88 more rows

By making a grouping of the accidents that took place in 2023 according to the directions, we examined how many accidents were made in which direction.

sorted_grouped_data <- grouped_data_2 %>%
  arrange(desc(Total_Accidents))
sorted_grouped_data

# A tibble: 98 x 2
   ISTIKAMET  Total_Accidents
   <chr>                <int>
 1 Merkez                1671
 2 Bornova               1059
 3 Gaziemir               773
 4 Konak                  413
 5 Çiğli                  350
 6 Karabağlar             323
 7 Marina                 312
 8 Havalimanı             268
 9 Karşıyaka              179
10 Kemalpaşa              161
# i 88 more rows
…
We have created a bar plot showing the distribution according to directions using our data set, the accident numbers of which have already been sorted to decreasing order.We can see that the most accidents occur in Merkez ,Bornova, Gaziemir, Konak and Çiğli.

library(dplyr)
accidents_date <- data_2023 %>%
  group_by(TARIH) %>%  
  summarise(Accident_Number = n())
accidents_date

# A tibble: 365 x 2
   TARIH      Accident_Number
   <date>               <int>
 1 2023-01-01               6
 2 2023-01-02               9
 3 2023-01-03              10
 4 2023-01-04              12
 5 2023-01-05              11
 6 2023-01-06              24
 7 2023-01-07               8
 8 2023-01-08              13
 9 2023-01-09              23
10 2023-01-10              19
# i 355 more rows
…
[1] "2023-06-22" "2023-04-07" "2023-03-03" "2023-06-23" "2023-07-28"

In our studies that we have done so far, we have found that the number of accidents is usually higher in the same directions.To better understand this, we also examine the first five days with the most accidentsWith the help of this code, we learn about the five days with the most accidents.

destination_accidents_top_5 <- data_2023 %>%
  filter(TARIH %in% top_5_most_accident_dates) %>%  
  group_by(ISTIKAMET) %>%  
  summarise(Accident_Number = n()) %>%  # Calculating the accident number for each destination point.
  arrange(desc(Accident_Number))
destination_accidents_top_5

# A tibble: 23 x 2
   ISTIKAMET  Accident_Number
   <chr>                <int>
 1 Merkez                  60
 2 Bornova                 28
 3 Gaziemir                28
 4 Konak                   12
 5 Marina                   9
 6 Havalimanı               8
 7 Çiğli                    8
 8 Karabağlar               5
 9 Karşıyaka                5
10 Alsancak                 4
# i 13 more rows

We have collected the distribution of the five most accident days according to the directions in the data set named “destination_accidents_top_5” and sorted them in descending order

accidents_date_destination <- data_2023 %>%
  filter(TARIH %in% top_5_most_accident_dates) %>%  
  group_by(TARIH, ISTIKAMET) %>%  # Grouping by date and destination 
  summarise(Accident_Number = n()) %>%  # Calculating the number of accidents for each group
  arrange(TARIH, desc(Accident_Number))  

`summarise()` has grouped output by 'TARIH'. You can override using the
`.groups` argument.

accidents_date_destination

# A tibble: 59 x 3
# Groups:   TARIH [5]
   TARIH      ISTIKAMET  Accident_Number
   <date>     <chr>                <int>
 1 2023-03-03 Merkez                   9
 2 2023-03-03 Bornova                  8
 3 2023-03-03 Gaziemir                 7
 4 2023-03-03 Marina                   3
 5 2023-03-03 Otogar                   3
 6 2023-03-03 Alsancak                 1
 7 2023-03-03 Buca                     1
 8 2023-03-03 Karabağlar               1
 9 2023-03-03 Kemalpaşa                1
10 2023-03-03 Çankaya                  1
# i 49 more rows
…
